\relax 
\providecommand\hyper@newdestlabel[2]{}
\providecommand\HyperFirstAtBeginDocument{\AtBeginDocument}
\HyperFirstAtBeginDocument{\ifx\hyper@anchor\@undefined
\global\let\oldcontentsline\contentsline
\gdef\contentsline#1#2#3#4{\oldcontentsline{#1}{#2}{#3}}
\global\let\oldnewlabel\newlabel
\gdef\newlabel#1#2{\newlabelxx{#1}#2}
\gdef\newlabelxx#1#2#3#4#5#6{\oldnewlabel{#1}{{#2}{#3}}}
\AtEndDocument{\ifx\hyper@anchor\@undefined
\let\contentsline\oldcontentsline
\let\newlabel\oldnewlabel
\fi}
\fi}
\global\let\hyper@last\relax 
\gdef\HyperFirstAtBeginDocument#1{#1}
\providecommand\HyField@AuxAddToFields[1]{}
\providecommand\HyField@AuxAddToCoFields[2]{}
\citation{pmpp2016}
\citation{cudac}
\providecommand \oddpage@label [2]{}
\@writefile{toc}{\contentsline {section}{\numberline {1}\hskip -1em.\nobreakspace  {}Introduction}{1}{section.1}\protected@file@percent }
\@writefile{toc}{\contentsline {subsection}{\numberline {1.1}\hskip -1em.\nobreakspace  {}Basic concepts of CUDA platform}{1}{subsection.1.1}\protected@file@percent }
\@writefile{toc}{\contentsline {subsection}{\numberline {1.2}\hskip -1em.\nobreakspace  {}Convolution}{2}{subsection.1.2}\protected@file@percent }
\newlabel{def:def11}{{1}{2}{Convolution}{definition.1}{}}
\newlabel{def:def11@cref}{{[definition][1][]1}{[1][2][]2}}
\@writefile{toc}{\contentsline {section}{\numberline {2}\hskip -1em.\nobreakspace  {}Convolution implementations}{2}{section.2}\protected@file@percent }
\@writefile{toc}{\contentsline {subsection}{\numberline {2.1}\hskip -1em.\nobreakspace  {}Sequential implementation}{2}{subsection.2.1}\protected@file@percent }
\@writefile{loa}{\contentsline {algorithm}{\numberline {1}{\ignorespaces Convolution\relax }}{2}{algorithm.1}\protected@file@percent }
\newlabel{alg:alg1}{{1}{2}{Convolution\relax }{algorithm.1}{}}
\newlabel{alg:alg1@cref}{{[algorithm][1][]1}{[1][2][]2}}
\@writefile{toc}{\contentsline {subsection}{\numberline {2.2}\hskip -1em.\nobreakspace  {}Naive parallel implementation}{2}{subsection.2.2}\protected@file@percent }
\@writefile{lof}{\contentsline {figure}{\numberline {1}{\ignorespaces Convolution applied to an image of resolution 1920$\times $1080 with two different masks.\relax }}{3}{figure.caption.1}\protected@file@percent }
\providecommand*\caption@xref[2]{\@setref\relax\@undefined{#1}}
\newlabel{fig:fig1}{{1}{3}{Convolution applied to an image of resolution 1920$\times $1080 with two different masks.\relax }{figure.caption.1}{}}
\newlabel{fig:fig1@cref}{{[figure][1][]1}{[1][2][]3}}
\@writefile{loa}{\contentsline {algorithm}{\numberline {2}{\ignorespaces ConvolutionParallelStub\relax }}{3}{algorithm.2}\protected@file@percent }
\newlabel{alg:alg2}{{2}{3}{ConvolutionParallelStub\relax }{algorithm.2}{}}
\newlabel{alg:alg2@cref}{{[algorithm][2][]2}{[1][3][]3}}
\@writefile{loa}{\contentsline {algorithm}{\numberline {3}{\ignorespaces Kernel\relax }}{3}{algorithm.3}\protected@file@percent }
\newlabel{alg:alg3}{{3}{3}{Kernel\relax }{algorithm.3}{}}
\newlabel{alg:alg3@cref}{{[algorithm][3][]3}{[1][3][]3}}
\@writefile{toc}{\contentsline {subsection}{\numberline {2.3}\hskip -1em.\nobreakspace  {}Tiling optimization}{3}{subsection.2.3}\protected@file@percent }
\@writefile{toc}{\contentsline {subsection}{\numberline {2.4}\hskip -1em.\nobreakspace  {}Constant memory optimization}{4}{subsection.2.4}\protected@file@percent }
\@writefile{toc}{\contentsline {section}{\numberline {3}\hskip -1em.\nobreakspace  {}Results}{4}{section.3}\protected@file@percent }
\@writefile{toc}{\contentsline {section}{\numberline {4}\hskip -1em.\nobreakspace  {}Conclusions}{5}{section.4}\protected@file@percent }
\newlabel{fig:figa}{{2a}{6}{No transfers. Mask 5$\times $5. Thread block 16$\times $16.\relax }{figure.caption.2}{}}
\newlabel{fig:figa@cref}{{[subfigure][1][2]2a}{[1][5][]6}}
\newlabel{sub@fig:figa}{{a}{6}{No transfers. Mask 5$\times $5. Thread block 16$\times $16.\relax }{figure.caption.2}{}}
\newlabel{sub@fig:figa@cref}{{[subfigure][1][2]2a}{[1][5][]6}}
\newlabel{fig:figb}{{2b}{6}{No transfers. Mask 5$\times $5. Thread block 32$\times $32.\relax }{figure.caption.2}{}}
\newlabel{fig:figb@cref}{{[subfigure][2][2]2b}{[1][5][]6}}
\newlabel{sub@fig:figb}{{b}{6}{No transfers. Mask 5$\times $5. Thread block 32$\times $32.\relax }{figure.caption.2}{}}
\newlabel{sub@fig:figb@cref}{{[subfigure][2][2]2b}{[1][5][]6}}
\newlabel{fig:figc}{{2c}{6}{No transfers. Mask 9$\times $9. Thread block 16$\times $16.\relax }{figure.caption.2}{}}
\newlabel{fig:figc@cref}{{[subfigure][3][2]2c}{[1][5][]6}}
\newlabel{sub@fig:figc}{{c}{6}{No transfers. Mask 9$\times $9. Thread block 16$\times $16.\relax }{figure.caption.2}{}}
\newlabel{sub@fig:figc@cref}{{[subfigure][3][2]2c}{[1][5][]6}}
\newlabel{fig:figd}{{2d}{6}{No transfers. Mask 9$\times $9. Thread block 32$\times $32.\relax }{figure.caption.2}{}}
\newlabel{fig:figd@cref}{{[subfigure][4][2]2d}{[1][5][]6}}
\newlabel{sub@fig:figd}{{d}{6}{No transfers. Mask 9$\times $9. Thread block 32$\times $32.\relax }{figure.caption.2}{}}
\newlabel{sub@fig:figd@cref}{{[subfigure][4][2]2d}{[1][5][]6}}
\newlabel{fig:fige}{{2e}{6}{Overall. Mask 5$\times $5. Thread block 16$\times $16.\relax }{figure.caption.2}{}}
\newlabel{fig:fige@cref}{{[subfigure][5][2]2e}{[1][5][]6}}
\newlabel{sub@fig:fige}{{e}{6}{Overall. Mask 5$\times $5. Thread block 16$\times $16.\relax }{figure.caption.2}{}}
\newlabel{sub@fig:fige@cref}{{[subfigure][5][2]2e}{[1][5][]6}}
\newlabel{fig:figf}{{2f}{6}{Overall. Mask 5$\times $5. Thread block 32$\times $32.\relax }{figure.caption.2}{}}
\newlabel{fig:figf@cref}{{[subfigure][6][2]2f}{[1][5][]6}}
\newlabel{sub@fig:figf}{{f}{6}{Overall. Mask 5$\times $5. Thread block 32$\times $32.\relax }{figure.caption.2}{}}
\newlabel{sub@fig:figf@cref}{{[subfigure][6][2]2f}{[1][5][]6}}
\newlabel{fig:figg}{{2g}{6}{Overall. Mask 9$\times $9. Thread block 16$\times $16.\relax }{figure.caption.2}{}}
\newlabel{fig:figg@cref}{{[subfigure][7][2]2g}{[1][5][]6}}
\newlabel{sub@fig:figg}{{g}{6}{Overall. Mask 9$\times $9. Thread block 16$\times $16.\relax }{figure.caption.2}{}}
\newlabel{sub@fig:figg@cref}{{[subfigure][7][2]2g}{[1][5][]6}}
\newlabel{fig:figh}{{2h}{6}{Overall. Mask 9$\times $9. Thread block 32$\times $32.\relax }{figure.caption.2}{}}
\newlabel{fig:figh@cref}{{[subfigure][8][2]2h}{[1][5][]6}}
\newlabel{sub@fig:figh}{{h}{6}{Overall. Mask 9$\times $9. Thread block 32$\times $32.\relax }{figure.caption.2}{}}
\newlabel{sub@fig:figh@cref}{{[subfigure][8][2]2h}{[1][5][]6}}
\@writefile{lof}{\contentsline {figure}{\numberline {2}{\ignorespaces Average speedups applied to four different image resolutions in function of the different mask and thread block dimensions.\relax }}{6}{figure.caption.2}\protected@file@percent }
\newlabel{fig:fig2}{{2}{6}{Average speedups applied to four different image resolutions in function of the different mask and thread block dimensions.\relax }{figure.caption.2}{}}
\newlabel{fig:fig2@cref}{{[figure][2][]2}{[1][5][]6}}
\@writefile{lot}{\contentsline {table}{\numberline {1}{\ignorespaces Runtimes without data transfers. Mask dimensions 5$\times $5. Thread block dimensions 16$\times $16.\relax }}{7}{table.caption.3}\protected@file@percent }
\newlabel{tab:tab1}{{1}{7}{Runtimes without data transfers. Mask dimensions 5$\times $5. Thread block dimensions 16$\times $16.\relax }{table.caption.3}{}}
\newlabel{tab:tab1@cref}{{[table][1][]1}{[1][5][]7}}
\@writefile{lot}{\contentsline {table}{\numberline {2}{\ignorespaces Runtimes without data transfers. Mask dimensions 5$\times $5. Thread block dimensions 32$\times $32.\relax }}{7}{table.caption.4}\protected@file@percent }
\newlabel{tab:tab2}{{2}{7}{Runtimes without data transfers. Mask dimensions 5$\times $5. Thread block dimensions 32$\times $32.\relax }{table.caption.4}{}}
\newlabel{tab:tab2@cref}{{[table][2][]2}{[1][5][]7}}
\@writefile{lot}{\contentsline {table}{\numberline {3}{\ignorespaces Runtimes without data transfers. Mask dimensions 9$\times $9. Thread block dimensions 16$\times $16.\relax }}{7}{table.caption.5}\protected@file@percent }
\newlabel{tab:tab3}{{3}{7}{Runtimes without data transfers. Mask dimensions 9$\times $9. Thread block dimensions 16$\times $16.\relax }{table.caption.5}{}}
\newlabel{tab:tab3@cref}{{[table][3][]3}{[1][5][]7}}
\@writefile{lot}{\contentsline {table}{\numberline {4}{\ignorespaces Runtimes without data transfers. Mask dimensions 9$\times $9. Thread block dimensions 32$\times $32.\relax }}{7}{table.caption.6}\protected@file@percent }
\newlabel{tab:tab4}{{4}{7}{Runtimes without data transfers. Mask dimensions 9$\times $9. Thread block dimensions 32$\times $32.\relax }{table.caption.6}{}}
\newlabel{tab:tab4@cref}{{[table][4][]4}{[1][5][]7}}
\@writefile{lot}{\contentsline {table}{\numberline {5}{\ignorespaces Runtimes overall with data transfers. Mask dimensions 5$\times $5. Thread block dimensions 16$\times $16.\relax }}{8}{table.caption.7}\protected@file@percent }
\newlabel{tab:tab5}{{5}{8}{Runtimes overall with data transfers. Mask dimensions 5$\times $5. Thread block dimensions 16$\times $16.\relax }{table.caption.7}{}}
\newlabel{tab:tab5@cref}{{[table][5][]5}{[1][5][]8}}
\@writefile{lot}{\contentsline {table}{\numberline {6}{\ignorespaces Runtimes overall with data transfers. Mask dimensions 5$\times $5. Thread block dimensions 32$\times $32.\relax }}{8}{table.caption.8}\protected@file@percent }
\newlabel{tab:tab6}{{6}{8}{Runtimes overall with data transfers. Mask dimensions 5$\times $5. Thread block dimensions 32$\times $32.\relax }{table.caption.8}{}}
\newlabel{tab:tab6@cref}{{[table][6][]6}{[1][5][]8}}
\@writefile{lot}{\contentsline {table}{\numberline {7}{\ignorespaces Runtimes overall with data transfers. Mask dimensions 9$\times $9. Thread block dimensions 16$\times $16.\relax }}{8}{table.caption.9}\protected@file@percent }
\newlabel{tab:tab7}{{7}{8}{Runtimes overall with data transfers. Mask dimensions 9$\times $9. Thread block dimensions 16$\times $16.\relax }{table.caption.9}{}}
\newlabel{tab:tab7@cref}{{[table][7][]7}{[1][5][]8}}
\@writefile{lot}{\contentsline {table}{\numberline {8}{\ignorespaces Runtimes overall with data transfers. Mask dimensions 9$\times $9. Thread block dimensions 32$\times $32.\relax }}{8}{table.caption.10}\protected@file@percent }
\newlabel{tab:tab8}{{8}{8}{Runtimes overall with data transfers. Mask dimensions 9$\times $9. Thread block dimensions 32$\times $32.\relax }{table.caption.10}{}}
\newlabel{tab:tab8@cref}{{[table][8][]8}{[1][5][]8}}
\bibstyle{ieee}
\bibcite{pmpp2016}{1}
\bibcite{cudac}{2}
