2099.95,32.652,64.3131,170.4,12.3237,7.952,264.078,65.044,32.2851,5.834,359.951,62.03,33.8538
2099.12,28.997,72.3909,147.509,14.2305,7.622,275.403,64.102,32.7466,5.562,377.404,61.49,34.1376
2147.94,27.439,78.2804,146.453,14.6664,7.872,272.858,64.657,33.2205,5.758,373.035,61.739,34.7906
2100.07,28.446,73.8267,151.577,13.8548,7.893,266.068,64.7,32.4586,5.759,364.659,66.648,31.5099
2109.06,28.491,74.0256,148.388,14.2132,7.709,273.585,64.223,32.8397,5.625,374.945,61.855,34.0969
2111.06,27.878,75.7251,152.546,13.8389,7.729,273.135,64.653,32.6522,5.652,373.507,62.868,33.5793
2100.41,28.085,74.7876,145.493,14.4365,7.887,266.313,64.145,32.7447,5.761,364.591,61.849,33.9603
2103.94,28.24,74.5021,147.765,14.2384,7.872,267.269,64.284,32.7288,5.764,365.014,62.336,33.7516
2094.75,32.703,64.0537,156.174,13.4129,8.001,261.811,64.947,32.2532,5.841,358.628,62.406,33.5665
2135.19,28.963,73.7212,150.173,14.2182,8.197,260.484,65.464,32.6162,5.978,357.174,62.606,34.1051
2153.49,29.349,73.3751,150.366,14.3216,7.956,270.674,64.731,33.2682,5.841,368.684,62.192,34.6264
2169.24,28.745,75.465,154.371,14.0521,7.709,281.391,64.314,33.7289,5.645,384.276,61.181,35.4561
2105.6,28.08,74.9856,148.361,14.1924,8.009,262.904,64.205,32.7949,5.839,360.609,62.103,33.9049
2189.99,28.769,76.1233,153.854,14.2342,7.962,275.055,64.133,34.1476,5.833,375.448,61.815,35.4281
2097.46,28.738,72.9857,147.454,14.2245,8.005,262.019,64.511,32.5132,5.844,358.909,62.027,33.8153
2187.69,28.73,76.1466,152.821,14.3154,7.984,274.009,64.654,33.8369,5.832,375.118,62.33,35.0985
2100.67,32.688,64.2644,151.884,13.8308,7.963,263.804,64.384,32.6273,5.836,359.951,61.889,33.9426
2206.88,28.999,76.102,148.499,14.8613,7.695,286.794,63.894,34.5397,5.648,390.737,62.337,35.4024
2308.1,27.805,83.0102,148.366,15.5568,8.177,282.267,65.238,35.3797,5.976,386.228,62.613,36.8629
2113.89,29.341,72.0455,149.864,14.1054,7.717,273.926,64.478,32.7846,5.641,374.736,62.141,34.0176
2211.74,27.944,79.1489,147.283,15.0169,8.173,270.615,65.66,33.6847,5.972,370.351,62.375,35.4587
2191.97,29.375,74.6202,148.49,14.7617,7.84,279.588,64.219,34.1327,5.759,380.616,62.124,35.2837
2099.17,28.548,73.5314,150.661,13.9331,7.869,266.765,64.078,32.7597,5.758,364.566,61.686,34.03
2225.55,28.272,78.7193,148.948,14.9418,7.861,283.113,63.924,34.8156,5.773,385.51,61.661,36.0933
2214.07,32.682,67.7459,155.198,14.2661,8.271,267.691,64.759,34.1894,6.065,365.057,62.303,35.5371
2100.83,30.096,69.8042,148.968,14.1025,7.697,272.941,64.67,32.4853,5.646,372.091,61.79,33.9995
2108.24,28.077,75.0879,149.269,14.1238,7.971,264.489,64.906,32.4815,5.829,361.682,62.348,33.8141
2209.03,28.743,76.8547,148.124,14.9134,7.965,277.343,64.373,34.3162,5.842,378.13,61.957,35.6543
2099.36,28.731,73.0696,148.862,14.1028,7.995,262.585,64.523,32.5367,5.838,359.603,62.91,33.3709
2103,29.005,72.5046,156.904,13.4031,7.952,264.461,64.82,32.4436,5.836,360.349,62.452,33.6738
